# Blender MTL File: 'maromo.blend'
# Material Count: 5

newmtl None
Ns 0
Ka 0.000000 0.000000 0.000000
Kd 0.8 0.8 0.8
Ks 0.8 0.8 0.8
d 1
illum 2

newmtl jeans
Ns 960.784314
Ka 0.110000 0.110000 0.110000
Kd 0.695950 0.523180 0.412820
Ks 0.000000 0.000000 0.000000
Ke 0.000000 0.000000 0.000000
Ni 1.000000
d 1.000000
illum 1
map_Kd jeans-texture.jpg

newmtl shirt
Ns 960.784314
Ka 0.110000 0.110000 0.110000
Kd 0.695950 0.523180 0.412820
Ks 0.000000 0.000000 0.000000
Ke 0.000000 0.000000 0.000000
Ni 1.000000
d 1.000000
illum 1
map_Kd cloth-texture.jpg

newmtl zapas
Ns 960.784314
Ka 0.110000 0.110000 0.110000
Kd 0.695950 0.523180 0.412820
Ks 0.000000 0.000000 0.000000
Ke 0.000000 0.000000 0.000000
Ni 1.000000
d 1.000000
illum 1
map_Kd zapa.png

newmtl zapas.001
Ns 960.784314
Ka 0.110000 0.110000 0.110000
Kd 0.695950 0.523180 0.412820
Ks 0.000000 0.000000 0.000000
Ke 0.000000 0.000000 0.000000
Ni 1.000000
d 1.000000
illum 1
map_Kd otherzapa.png
