# Blender MTL File: 'None'
# Material Count: 5

newmtl None
Ns 0.000000
Ka 0.000000 0.000000 0.000000
Kd 0.800000 0.800000 0.800000
Ks 0.800000 0.800000 0.800000
Ke 0.000000 0.000000 0.000000
Ni 1.000000
d 1.000000
illum 2

newmtl jeans
Ns 960.784314
Ka 0.110000 0.110000 0.110000
Kd 0.695950 0.523180 0.412820
Ks 0.300000 0.300000 0.300000
Ke 0.000000 0.000000 0.000000
Ni 1.000000
d 1.000000
illum 3
map_Kd aframe-boilerplate/assets/jeans-texture.jpg

newmtl shirt
Ns 960.784314
Ka 0.110000 0.110000 0.110000
Kd 0.695950 0.523180 0.412820
Ks 0.300000 0.300000 0.300000
Ke 0.000000 0.000000 0.000000
Ni 1.000000
d 1.000000
illum 3
map_Kd aframe-boilerplate/assets/cloth-texture.jpg

newmtl zapas
Ns 960.784314
Ka 0.110000 0.110000 0.110000
Kd 0.695950 0.523180 0.412820
Ks 0.300000 0.300000 0.300000
Ke 0.000000 0.000000 0.000000
Ni 1.000000
d 1.000000
illum 3
map_Kd aframe-boilerplate/assets/zapa.png

newmtl zapas.001
Ns 960.784314
Ka 0.110000 0.110000 0.110000
Kd 1.000000 1.000000 1.000000
Ks 1.000000 1.000000 1.000000
Ke 0.000000 0.000000 0.000000
Ni 1.000000
d 1.000000
illum 2
map_Kd aframe-boilerplate/assets/otherzapa.png
